{
  "categories": {
    "href": "https://api.spotify.com/v1/browse/categories?country=FI&offset=0&limit=20",
    "limit": 20,
    "next": "https://api.spotify.com/v1/browse/categories?country=FI&offset=20&limit=20",
    "offset": 0,
    "previous": null,
    "total": 46,
    "items": [
      {
        "href": "https://api.spotify.com/v1/browse/categories/toplists",
        "icons": [
          {
            "height": 275,
            "url": "https://t.scdn.co/media/derived/toplists_11160599e6a04ac5d6f2757f5511778f_0_0_275_275.jpg",
            "width": 275
          }
        ],
        "id": "toplists",
        "name": "Top Lists"
      },
      {
        "href": "https://api.spotify.com/v1/browse/categories/0JQ5DAqbMKFPw634sFwguI",
        "icons": [
          {
            "height": null,
            "url": "https://t.scdn.co/images/084155aeaa724ea1bd393a017d67b709",
            "width": null
          }
        ],
        "id": "0JQ5DAqbMKFPw634sFwguI",
        "name": "EQUAL"
      },
      {
        "href": "https://api.spotify.com/v1/browse/categories/0JQ5DAqbMKFx0uLQR2okcc",
        "icons": [
          {
            "height": null,
            "url": "https://t.scdn.co/images/04da469dd7be4dab96659aa1fa9f0ac9.jpeg",
            "width": null
          }
        ],
        "id": "0JQ5DAqbMKFx0uLQR2okcc",
        "name": "At Home"
      },
      {
        "href": "https://api.spotify.com/v1/browse/categories/0JQ5DAqbMKFAUsdyVjCQuL",
        "icons": [
          {
            "height": 274,
            "url": "https://t.scdn.co/media/derived/romance-274x274_8100794c94847b6d27858bed6fa4d91b_0_0_274_274.jpg",
            "width": 274
          }
        ],
        "id": "0JQ5DAqbMKFAUsdyVjCQuL",
        "name": "Romance"
      },
      {
        "href": "https://api.spotify.com/v1/browse/categories/0JQ5DAqbMKFEC4WFtoNRpw",
        "icons": [
          {
            "height": 274,
            "url": "https://t.scdn.co/media/derived/pop-274x274_447148649685019f5e2a03a39e78ba52_0_0_274_274.jpg",
            "width": 274
          }
        ],
        "id": "0JQ5DAqbMKFEC4WFtoNRpw",
        "name": "Pop"
      },
      {
        "href": "https://api.spotify.com/v1/browse/categories/0JQ5DAqbMKFQ00XGBls6ym",
        "icons": [
          {
            "height": 274,
            "url": "https://t.scdn.co/media/original/hip-274_0a661854d61e29eace5fe63f73495e68_274x274.jpg",
            "width": 274
          }
        ],
        "id": "0JQ5DAqbMKFQ00XGBls6ym",
        "name": "Hip-Hop"
      },
      {
        "href": "https://api.spotify.com/v1/browse/categories/0JQ5DAqbMKFDXXwE9BDJAr",
        "icons": [
          {
            "height": 274,
            "url": "https://t.scdn.co/media/derived/rock_9ce79e0a4ef901bbd10494f5b855d3cc_0_0_274_274.jpg",
            "width": 274
          }
        ],
        "id": "0JQ5DAqbMKFDXXwE9BDJAr",
        "name": "Rock"
      },
      {
        "href": "https://api.spotify.com/v1/browse/categories/0JQ5DAqbMKFzHmL4tf05da",
        "icons": [
          {
            "height": 274,
            "url": "https://t.scdn.co/media/original/mood-274x274_976986a31ac8c49794cbdc7246fd5ad7_274x274.jpg",
            "width": 274
          }
        ],
        "id": "0JQ5DAqbMKFzHmL4tf05da",
        "name": "Mood"
      },
      {
        "href": "https://api.spotify.com/v1/browse/categories/0JQ5DAqbMKFA6SOHvT3gck",
        "icons": [
          {
            "height": null,
            "url": "https://t.scdn.co/images/fada056dcfd54cd28faf80d62b7059c6.jpeg",
            "width": null
          }
        ],
        "id": "0JQ5DAqbMKFA6SOHvT3gck",
        "name": "Party"
      },
      {
        "href": "https://api.spotify.com/v1/browse/categories/0JQ5DAqbMKFHOzuVTgTizF",
        "icons": [
          {
            "height": 274,
            "url": "https://t.scdn.co/media/derived/edm-274x274_0ef612604200a9c14995432994455a6d_0_0_274_274.jpg",
            "width": 274
          }
        ],
        "id": "0JQ5DAqbMKFHOzuVTgTizF",
        "name": "Dance/Electronic"
      },
      {
        "href": "https://api.spotify.com/v1/browse/categories/0JQ5DAqbMKFDkd668ypn6O",
        "icons": [
          {
            "height": 274,
            "url": "https://t.scdn.co/media/original/metal_27c921443fd0a5ba95b1b2c2ae654b2b_274x274.jpg",
            "width": 274
          }
        ],
        "id": "0JQ5DAqbMKFDkd668ypn6O",
        "name": "Metal"
      },
      {
        "href": "https://api.spotify.com/v1/browse/categories/0JQ5DAqbMKFAXlCG6QvYQ4",
        "icons": [
          {
            "height": null,
            "url": "https://t.scdn.co/media/links/workout-274x274.jpg",
            "width": null
          }
        ],
        "id": "0JQ5DAqbMKFAXlCG6QvYQ4",
        "name": "Workout"
      },
      {
        "href": "https://api.spotify.com/v1/browse/categories/0JQ5DAqbMKFFzDl7qN9Apr",
        "icons": [
          {
            "height": 274,
            "url": "https://t.scdn.co/media/derived/chill-274x274_4c46374f007813dd10b37e8d8fd35b4b_0_0_274_274.jpg",
            "width": 274
          }
        ],
        "id": "0JQ5DAqbMKFFzDl7qN9Apr",
        "name": "Chill"
      },
      {
        "href": "https://api.spotify.com/v1/browse/categories/0JQ5DAqbMKFIVNxQgRNSg0",
        "icons": [
          {
            "height": null,
            "url": "https://t.scdn.co/images/b611cf5145764c64b80e91ccd5f357c8",
            "width": null
          }
        ],
        "id": "0JQ5DAqbMKFIVNxQgRNSg0",
        "name": "Decades"
      },
      {
        "href": "https://api.spotify.com/v1/browse/categories/0JQ5DAqbMKFCWjUTdzaG0e",
        "icons": [
          {
            "height": null,
            "url": "https://t.scdn.co/images/fe06caf056474bc58862591cd60b57fc.jpeg",
            "width": null
          }
        ],
        "id": "0JQ5DAqbMKFCWjUTdzaG0e",
        "name": "Indie"
      },
      {
        "href": "https://api.spotify.com/v1/browse/categories/0JQ5DAqbMKFCuoRTxhYWow",
        "icons": [
          {
            "height": 274,
            "url": "https://t.scdn.co/media/derived/sleep-274x274_0d4f836af8fab7bf31526968073e671c_0_0_274_274.jpg",
            "width": 274
          }
        ],
        "id": "0JQ5DAqbMKFCuoRTxhYWow",
        "name": "Sleep"
      },
      {
        "href": "https://api.spotify.com/v1/browse/categories/0JQ5DAqbMKFCbimwdOYlsl",
        "icons": [
          {
            "height": 274,
            "url": "https://t.scdn.co/media/original/genre-images-square-274x274_5e50d72b846a198fcd2ca9b3aef5f0c8_274x274.jpg",
            "width": 274
          }
        ],
        "id": "0JQ5DAqbMKFCbimwdOYlsl",
        "name": "Focus"
      },
      {
        "href": "https://api.spotify.com/v1/browse/categories/0JQ5DAqbMKFAJ5xb0fwo9m",
        "icons": [
          {
            "height": null,
            "url": "https://t.scdn.co/images/568f37f1cab54136939d63bd1f59d40c",
            "width": null
          }
        ],
        "id": "0JQ5DAqbMKFAJ5xb0fwo9m",
        "name": "Jazz"
      },
      {
        "href": "https://api.spotify.com/v1/browse/categories/0JQ5DAqbMKFEZPnFQSFB1T",
        "icons": [
          {
            "height": 274,
            "url": "https://t.scdn.co/media/derived/r-b-274x274_fd56efa72f4f63764b011b68121581d8_0_0_274_274.jpg",
            "width": 274
          }
        ],
        "id": "0JQ5DAqbMKFEZPnFQSFB1T",
        "name": "RnB"
      },
      {
        "href": "https://api.spotify.com/v1/browse/categories/0JQ5DAqbMKFPrEiAOxgac3",
        "icons": [
          {
            "height": 274,
            "url": "https://t.scdn.co/media/derived/classical-274x274_abf78251ff3d90d2ceaf029253ca7cb4_0_0_274_274.jpg",
            "width": 274
          }
        ],
        "id": "0JQ5DAqbMKFPrEiAOxgac3",
        "name": "Classical"
      }
    ]
  }
}
